<?xml version="1.0" encoding="UTF-8" standalone="no"?>
<svg width="16px" height="16px" viewBox="0 0 16 16" version="1.1" xmlns="http://www.w3.org/2000/svg" xmlns:xlink="http://www.w3.org/1999/xlink">
    <!-- Generator: Sketch 42 (36781) - http://www.bohemiancoding.com/sketch -->
    <title>insta</title>
    <desc>Created with Sketch.</desc>
    <defs></defs>
    <g id="Page-1" stroke="none" stroke-width="1" fill="none" fill-rule="evenodd">
        <g id="overview-home-hover" transform="translate(-1093.000000, -20.000000)" fill="#FFFFFF">
            <g id="header">
                <g id="sm" transform="translate(1047.000000, 20.000000)">
                    <path d="M56.6666667,8 C56.6666667,7.26388521 56.4062526,6.63541927 55.8854167,6.11458333 C55.3645807,5.5937474 54.7361148,5.33333333 54,5.33333333 C53.2638852,5.33333333 52.6354193,5.5937474 52.1145833,6.11458333 C51.5937474,6.63541927 51.3333333,7.26388521 51.3333333,8 C51.3333333,8.73611479 51.5937474,9.36458073 52.1145833,9.88541667 C52.6354193,10.4062526 53.2638852,10.6666667 54,10.6666667 C54.7361148,10.6666667 55.3645807,10.4062526 55.8854167,9.88541667 C56.4062526,9.36458073 56.6666667,8.73611479 56.6666667,8 Z M58.1041667,8 C58.1041667,9.13889458 57.7048651,10.1076349 56.90625,10.90625 C56.1076349,11.7048651 55.1388946,12.1041667 54,12.1041667 C52.8611054,12.1041667 51.8923651,11.7048651 51.09375,10.90625 C50.2951349,10.1076349 49.8958333,9.13889458 49.8958333,8 C49.8958333,6.86110542 50.2951349,5.8923651 51.09375,5.09375 C51.8923651,4.2951349 52.8611054,3.89583333 54,3.89583333 C55.1388946,3.89583333 56.1076349,4.2951349 56.90625,5.09375 C57.7048651,5.8923651 58.1041667,6.86110542 58.1041667,8 Z M59.2291667,3.72916667 C59.2291667,3.99305687 59.1354176,4.21874906 58.9479167,4.40625 C58.7604157,4.59375094 58.5347235,4.6875 58.2708333,4.6875 C58.0069431,4.6875 57.7812509,4.59375094 57.59375,4.40625 C57.4062491,4.21874906 57.3125,3.99305687 57.3125,3.72916667 C57.3125,3.46527646 57.4062491,3.23958427 57.59375,3.05208333 C57.7812509,2.8645824 58.0069431,2.77083333 58.2708333,2.77083333 C58.5347235,2.77083333 58.7604157,2.8645824 58.9479167,3.05208333 C59.1354176,3.23958427 59.2291667,3.46527646 59.2291667,3.72916667 Z M54,1.4375 C53.9513886,1.4375 53.6857663,1.43576391 53.203125,1.43229167 C52.7204837,1.42881943 52.3541679,1.42881943 52.1041667,1.43229167 C51.8541654,1.43576391 51.5190993,1.44618047 51.0989583,1.46354167 C50.6788173,1.48090286 50.321182,1.51562474 50.0260417,1.56770833 C49.7309013,1.61979193 49.4826399,1.6840274 49.28125,1.76041667 C48.934026,1.89930625 48.6284735,2.10069313 48.3645833,2.36458333 C48.1006931,2.62847354 47.8993063,2.93402604 47.7604167,3.28125 C47.6840274,3.4826399 47.6197919,3.7309013 47.5677083,4.02604167 C47.5156247,4.32118203 47.4809029,4.67881734 47.4635417,5.09895833 C47.4461805,5.51909932 47.4357639,5.85416542 47.4322917,6.10416667 C47.4288194,6.35416792 47.4288194,6.7204837 47.4322917,7.203125 C47.4357639,7.6857663 47.4375,7.95138865 47.4375,8 C47.4375,8.04861135 47.4357639,8.3142337 47.4322917,8.796875 C47.4288194,9.2795163 47.4288194,9.64583208 47.4322917,9.89583333 C47.4357639,10.1458346 47.4461805,10.4809007 47.4635417,10.9010417 C47.4809029,11.3211827 47.5156247,11.678818 47.5677083,11.9739583 C47.6197919,12.2690987 47.6840274,12.5173601 47.7604167,12.71875 C47.8993063,13.065974 48.1006931,13.3715265 48.3645833,13.6354167 C48.6284735,13.8993069 48.934026,14.1006938 49.28125,14.2395833 C49.4826399,14.3159726 49.7309013,14.3802081 50.0260417,14.4322917 C50.321182,14.4843753 50.6788173,14.5190971 51.0989583,14.5364583 C51.5190993,14.5538195 51.8541654,14.5642361 52.1041667,14.5677083 C52.3541679,14.5711806 52.7204837,14.5711806 53.203125,14.5677083 C53.6857663,14.5642361 53.9513886,14.5625 54,14.5625 C54.0486114,14.5625 54.3142337,14.5642361 54.796875,14.5677083 C55.2795163,14.5711806 55.6458321,14.5711806 55.8958333,14.5677083 C56.1458346,14.5642361 56.4809007,14.5538195 56.9010417,14.5364583 C57.3211827,14.5190971 57.678818,14.4843753 57.9739583,14.4322917 C58.2690987,14.3802081 58.5173601,14.3159726 58.71875,14.2395833 C59.065974,14.1006938 59.3715265,13.8993069 59.6354167,13.6354167 C59.8993069,13.3715265 60.1006938,13.065974 60.2395833,12.71875 C60.3159726,12.5173601 60.3802081,12.2690987 60.4322917,11.9739583 C60.4843753,11.678818 60.5190971,11.3211827 60.5364583,10.9010417 C60.5538195,10.4809007 60.5642361,10.1458346 60.5677083,9.89583333 C60.5711806,9.64583208 60.5711806,9.2795163 60.5677083,8.796875 C60.5642361,8.3142337 60.5625,8.04861135 60.5625,8 C60.5625,7.95138865 60.5642361,7.6857663 60.5677083,7.203125 C60.5711806,6.7204837 60.5711806,6.35416792 60.5677083,6.10416667 C60.5642361,5.85416542 60.5538195,5.51909932 60.5364583,5.09895833 C60.5190971,4.67881734 60.4843753,4.32118203 60.4322917,4.02604167 C60.3802081,3.7309013 60.3159726,3.4826399 60.2395833,3.28125 C60.1006938,2.93402604 59.8993069,2.62847354 59.6354167,2.36458333 C59.3715265,2.10069313 59.065974,1.89930625 58.71875,1.76041667 C58.5173601,1.6840274 58.2690987,1.61979193 57.9739583,1.56770833 C57.678818,1.51562474 57.3211827,1.48090286 56.9010417,1.46354167 C56.4809007,1.44618047 56.1458346,1.43576391 55.8958333,1.43229167 C55.6458321,1.42881943 55.2795163,1.42881943 54.796875,1.43229167 C54.3142337,1.43576391 54.0486114,1.4375 54,1.4375 Z M62,8 C62,9.59028573 61.9826391,10.6909692 61.9479167,11.3020833 C61.8784719,12.746535 61.4479206,13.8645794 60.65625,14.65625 C59.8645794,15.4479206 58.746535,15.8784719 57.3020833,15.9479167 C56.6909692,15.9826391 55.5902857,16 54,16 C52.4097143,16 51.3090308,15.9826391 50.6979167,15.9479167 C49.253465,15.8784719 48.1354206,15.4479206 47.34375,14.65625 C46.5520794,13.8645794 46.1215281,12.746535 46.0520833,11.3020833 C46.0173609,10.6909692 46,9.59028573 46,8 C46,6.40971427 46.0173609,5.30903083 46.0520833,4.69791667 C46.1215281,3.253465 46.5520794,2.13542063 47.34375,1.34375 C48.1354206,0.552079375 49.253465,0.121528125 50.6979167,0.0520833333 C51.3090308,0.0173609375 52.4097143,0 54,0 C55.5902857,0 56.6909692,0.0173609375 57.3020833,0.0520833333 C58.746535,0.121528125 59.8645794,0.552079375 60.65625,1.34375 C61.4479206,2.13542063 61.8784719,3.253465 61.9479167,4.69791667 C61.9826391,5.30903083 62,6.40971427 62,8 Z" id="insta"></path>
                </g>
            </g>
        </g>
    </g>
</svg>