<?xml version="1.0" encoding="UTF-8" standalone="no"?>
<svg width="18px" height="14px" viewBox="0 0 18 14" version="1.1" xmlns="http://www.w3.org/2000/svg" xmlns:xlink="http://www.w3.org/1999/xlink">
    <!-- Generator: Sketch 42 (36781) - http://www.bohemiancoding.com/sketch -->
    <title></title>
    <desc>Created with Sketch.</desc>
    <defs></defs>
    <g id="Page-1" stroke="none" stroke-width="1" fill="none" fill-rule="evenodd">
        <g id="overview-home-hover" transform="translate(-1065.000000, -21.000000)" fill="#FFFFFF">
            <g id="header">
                <g id="sm" transform="translate(1047.000000, 20.000000)">
                    <path d="M36,2.6625 C35.4898452,3.37708691 34.8731001,3.98593498 34.1497462,4.4890625 C34.1573604,4.59114634 34.1611675,4.74426981 34.1611675,4.9484375 C34.1611675,5.89635891 34.0164989,6.8424432 33.7271574,7.78671875 C33.4378158,8.7309943 32.9980994,9.63697483 32.4079949,10.5046875 C31.8178905,11.3724002 31.1154863,12.1398404 30.3007614,12.8070313 C29.4860365,13.4742221 28.5038129,14.0065084 27.3540609,14.4039062 C26.204309,14.8013041 24.9746258,15 23.6649746,15 C21.6015125,15 19.7132065,14.4713595 18,13.4140625 C18.2664988,13.4432293 18.5634501,13.4578125 18.8908629,13.4578125 C20.6040695,13.4578125 22.130704,12.9546925 23.4708122,11.9484375 C22.6713158,11.9338541 21.9555869,11.6987002 21.3236041,11.2429687 C20.6916212,10.7872373 20.2576154,10.2057327 20.0215736,9.4984375 C20.2728439,9.53489602 20.5050751,9.553125 20.7182741,9.553125 C21.0456869,9.553125 21.3692877,9.51302123 21.6890863,9.4328125 C20.8362902,9.26510333 20.1300789,8.85859698 19.5704315,8.21328125 C19.010784,7.56796552 18.7309645,6.81875427 18.7309645,5.965625 L18.7309645,5.921875 C19.2487336,6.19895972 19.8045656,6.34843739 20.3984772,6.3703125 C19.8959366,6.04947756 19.4961944,5.63021092 19.1992386,5.1125 C18.9022828,4.59478908 18.7538071,4.03333636 18.7538071,3.428125 C18.7538071,2.78645513 18.9213181,2.19219023 19.2563452,1.6453125 C20.1776696,2.73177627 21.2988513,3.60129882 22.6199239,4.25390625 C23.9409965,4.90651368 25.3553224,5.26927047 26.8629442,5.3421875 C26.8020302,5.06510278 26.7715736,4.79531381 26.7715736,4.5328125 C26.7715736,3.55572428 27.1313416,2.7226597 27.8508883,2.03359375 C28.5704351,1.3445278 29.4403502,1 30.4606599,1 C31.5266551,1 32.4251232,1.37187128 33.1560914,2.115625 C33.9860448,1.96249923 34.7664938,1.67812708 35.4974619,1.2625 C35.2157346,2.10104586 34.6751309,2.7499977 33.8756345,3.209375 C34.5837599,3.13645797 35.2918746,2.95416813 36,2.6625 Z" id=""></path>
                </g>
            </g>
        </g>
    </g>
</svg>